Information on the Spanish Health Survey • enseResp
…
This is a basic example of how to obtain a dataset. For example, the survey of adults corresponding to 2017-19 survey.

library(enseResp)
library(dplyr)
#> 
#> Attaching package: 'dplyr'
#> The following objects are masked from 'package:stats':
#> 
#>     filter, lag
#> The following objects are masked from 'package:base':
#> 
#>     intersect, setdiff, setequal, union

enseResp::adults_19
#> # A tibble: 23,089 × 455
#>    CCAA  IDENTHOGAR A7_2a SEXOa EDADa ACTIVa PROXY_0 PROXY_1 PROXY_2 PROXY_2b
#>    <chr> <chr>      <chr> <dbl> <chr>  <dbl>   <dbl>   <dbl>   <dbl> <chr>   
#>  1 16    00001011   01        2 084        3       1      NA      NA <NA>    
#>  2 16    00001021   04        1 026        1       1      NA      NA <NA>    
#>  3 16    00001041   02        2 056        5       1      NA      NA <NA>    
#>  4 16    00001051   01        1 070        3       1      NA      NA <NA>    
#>  5 16    00001071   01        1 061        3       1      NA      NA <NA>    
#>  6 16    00001091   01        2 035        1       1      NA      NA <NA>    
#>  7 16    00001101   01        2 055        1       1      NA      NA <NA>    
#>  8 16    00001131   02        1 038        1       1      NA      NA <NA>    
#>  9 16    00001151   01        1 039        2       1      NA      NA <NA>    
#> 10 16    00002011   01        2 080        3       1      NA      NA <NA>    
#> # … with 23,079 more rows, and 445 more variables: PROXY_3b <dbl>,
#> #   PROXY_4 <chr>, PROXY_5 <dbl>, E1_1 <dbl>, E2_1a <dbl>, E2_1b <dbl>,
#> #   E2_1c <dbl>, E2_1d <dbl>, E3 <chr>, E4 <dbl>, E4b <dbl>, NIVEST <chr>,
#> #   F6 <dbl>, F7 <dbl>, F8_2 <chr>, F9_2 <chr>, F10 <dbl>, F11 <dbl>,
#> #   F12 <dbl>, F13 <chr>, F14a <dbl>, F14b <dbl>, F15 <dbl>, F16 <dbl>,
#> #   F17 <chr>, F18a_2 <chr>, F18b_2 <chr>, F19a_2 <dbl>, F19b_2 <chr>,
#> #   F20 <dbl>, G21 <dbl>, G22 <dbl>, G23 <dbl>, G24 <dbl>, G25a_1 <dbl>, …
…
